…
## -- Column specification --------------------------------------------------------
## Delimiter: ","
## chr   (6): web_name, first_name, news, photo, second_name, status
## dbl  (56): gameweek, event_points, next_gw_points, total_points, chance_of_p...
## lgl   (6): in_dreamteam, special, squad_number, corners_and_indirect_freekic...
## dttm  (2): news_added, correct_as_of_time

## 
## i Use `spec()` to retrieve the full column specification for this data.
## i Specify the column types or set `show_col_types = FALSE` to quiet this message.

fpl_data

## # A tibble: 4,976 x 70
##    web_name  gameweek event_points next_gw_points total_points chance_of_playin~
##    <chr>        <dbl>        <dbl>          <dbl>        <dbl>             <dbl>
##  1 Leno             1            1              0            1                NA
##  2 Leno             6            0              0            4                NA
##  3 Leno            10            0              0            4                NA
##  4 Leno            11            0              0            4                NA
##  5 Leno            12            0              0            4                NA
##  6 Leno            14            0              0            4                NA
##  7 Leno            15            0              0            4                75
##  8 Leno            17            0              0            4                75
##  9 Rúnarsson        1            0              0            0                 0
## 10 Rúnarsson        6            0              0            0                 0
## # ... with 4,966 more rows, and 64 more variables:
## #   chance_of_playing_this_round <dbl>, code <dbl>, cost_change_event <dbl>,
## #   cost_change_event_fall <dbl>, cost_change_start <dbl>,
## #   cost_change_start_fall <dbl>, dreamteam_count <dbl>, element_type <dbl>,
## #   ep_next <dbl>, ep_this <dbl>, first_name <chr>, form <dbl>,
## #   player_id <dbl>, in_dreamteam <lgl>, news <chr>, news_added <dttm>,
## #   now_cost <dbl>, photo <chr>, points_per_game <dbl>, second_name <chr>, ...
